# Blender MTL File: 'Bedroom.blend'
# Material Count: 3

newmtl Material.011
Ns 225.000000
Ka 1.000000 1.000000 1.000000
Kd 0.474004 0.474004 0.474004
Ks 0.500000 0.500000 0.500000
Ke 0.000000 0.000000 0.000000
Ni 1.450000
d 1.000000
illum 2

newmtl Material.012
Ns 323.999994
Ka 1.000000 1.000000 1.000000
Kd 0.000000 0.000000 0.000000
Ks 0.500000 0.500000 0.500000
Ke 0.000000 0.000000 0.000000
Ni 1.450000
d 1.000000
illum 2

newmtl None
Ns 500
Ka 0.8 0.8 0.8
Kd 0.8 0.8 0.8
Ks 0.8 0.8 0.8
d 1
illum 2
